"id","created_at","updated_at","status","found_us","client_type"
35908,"2016-03-15 09:55:10","2016-03-29 16:37:34","Efectiva","Cliente","Activo"
35909,"2016-03-15 10:10:07","2016-04-14 15:51:28","Efectiva","Cliente","Inactivo"
35910,"2016-03-15 10:10:31","2016-04-14 15:58:58","Efectiva","Cliente","Activo"
35911,"2016-03-15 10:30:21","2016-04-14 15:50:06","Efectiva","Cliente","Activo"
35913,"2016-03-15 10:51:20","2016-04-14 15:53:48","Efectiva","Cliente","Activo"
35914,"2016-03-15 10:58:33","2016-04-14 15:52:38","Efectiva","Cliente","Inactivo"
35921,"2016-03-15 15:51:03","2016-04-14 16:12:26","Efectiva","Cliente","Inactivo"
35922,"2016-03-15 16:59:23","2016-04-14 15:59:52","Efectiva","Cliente","Activo"
35926,"2016-03-16 09:44:51","2016-04-14 16:01:04","Efectiva","Cliente","Activo"
35930,"2016-03-16 12:25:30","2016-04-18 10:42:44","Efectiva","Cliente","Inactivo"
35931,"2016-03-16 15:25:20","2016-04-14 16:07:55","Efectiva","Cliente","Activo"
35932,"2016-03-16 16:04:35","2016-04-14 16:06:48","Efectiva","Cliente","Inactivo"
35933,"2016-03-16 16:26:01","2016-04-14 16:05:36","Efectiva","Cliente","Activo"
35934,"2016-03-16 16:44:47","2016-04-14 16:10:31","Efectiva","Cliente","Activo"
35935,"2016-03-16 17:19:37","2016-04-14 16:13:55","Efectiva","Cliente","Activo"
35936,"2016-03-17 08:08:48","2016-04-18 10:55:50","Efectiva","Cliente","Activo"
35938,"2016-03-17 09:15:58","2016-04-18 09:53:04","Efectiva","Cliente","Activo"
35940,"2016-03-17 09:50:52","2016-04-14 16:15:07","Efectiva","Google Adwords","Nuevo"
35941,"2016-03-17 10:02:08","2016-03-17 12:13:36","Efectiva","Cliente","Activo"
35951,"2016-03-17 15:46:05","2016-03-29 15:47:02","Efectiva","Cliente","Activo"
35953,"2016-03-17 16:50:30","2016-04-18 10:32:15","Efectiva","Referido","Activo"
35954,"2016-03-17 16:58:21","2016-04-18 10:33:29","Efectiva","Cliente","Activo"
35959,"2016-03-18 11:42:39","2016-04-18 10:58:14","Efectiva","Referido","Activo"
35960,"2016-03-18 11:52:24","2016-03-28 16:50:22","Efectiva","Cliente","Activo"
35963,"2016-03-18 14:20:12","2016-04-06 14:59:47","Efectiva","Asesores Comerciales","Nuevo"
35964,"2016-03-18 14:54:51","2016-04-18 11:03:14","Efectiva","Cliente","Activo"
35966,"2016-03-22 08:46:44","2016-03-29 10:06:30","Efectiva","Cliente","Activo"
35967,"2016-03-22 10:56:00","2016-04-18 11:00:20","Efectiva","Página Web Avante","Nuevo"
35968,"2016-03-22 13:15:03","2016-04-18 11:02:20","Efectiva","Cliente","Activo"
35969,"2016-03-22 14:50:51","2016-03-29 12:00:35","Efectiva","Cliente","Inactivo"
35970,"2016-03-22 15:10:42","2016-03-28 17:18:20","Efectiva","Cliente","Activo"
35971,"2016-03-22 15:34:42","2016-04-18 11:04:56","Efectiva","Cliente","Activo"
35972,"2016-03-22 16:54:56","2016-03-29 11:57:00","Efectiva","Cliente","Inactivo"
35975,"2016-03-23 12:13:51","2016-04-18 11:06:21","Efectiva","Cliente","Activo"
35979,"2016-03-28 11:10:06","2016-03-28 17:04:42","Efectiva","Cliente","Activo"
35980,"2016-03-28 11:18:13","2016-03-28 17:19:11","Efectiva","Cliente","Activo"
35982,"2016-03-28 11:58:00","2016-03-28 17:06:02","Efectiva","Referido","Activo"
35983,"2016-03-28 12:28:47","2016-03-28 17:04:18","Efectiva","Cliente","Activo"
35984,"2016-03-28 12:38:27","2016-03-28 17:14:52","Efectiva","Cliente","Activo"
35992,"2016-03-29 09:38:27","2016-03-29 10:06:16","Efectiva","Cliente","Activo"
35993,"2016-03-29 10:05:52","2016-03-29 11:50:13","Efectiva","Cliente","Activo"
36003,"2016-03-29 15:28:15","2016-03-31 08:39:02","Efectiva","Cliente","Activo"
36004,"2016-03-29 16:31:50","2016-04-01 10:19:55","Efectiva","Cliente","Activo"
36006,"2016-03-29 16:58:09","2016-03-30 08:51:10","Efectiva","Cliente","Inactivo"
36007,"2016-03-29 17:22:40","2016-04-01 10:00:53","Efectiva","Cliente","Activo"
36013,"2016-03-30 09:11:01","2016-03-30 12:13:52","Efectiva","Cliente","Activo"
36019,"2016-03-30 12:46:35","2016-04-01 10:25:53","Efectiva","Cliente","Activo"
36022,"2016-03-30 15:22:45","2016-03-31 08:41:54","Efectiva","Página Web Avante","Activo"
