"id","created_at","status","found_us","client_type","updated_at"
35967,"2016-03-22 10:56:00","Efectiva","Página Web Avante","Nuevo","2016-04-18 11:00:20"
36022,"2016-03-30 15:22:45","Efectiva","Página Web Avante","Activo","2016-03-31 08:41:54"
36058,"2016-04-01 08:55:46","Efectiva","Página Web Avante","Activo","2016-04-01 10:03:56"
36118,"2016-04-07 08:54:51","Efectiva","Página Web Avante","Nuevo","2016-04-11 09:46:24"
